level;lat;lng;query;name
11;;;Avrille;Avrille
11;;;Ecouflant;Ecouflant
11;;;Trelaze;Trélazé
13;;;Place du Ralliement, Angers;Place du Ralliement
13;;;Place Imbach, Angers;Place Imbach
13;;;patinoire ice parc, angers;Patinoire IceParc
13;;;cale de la savatte, angers;Cale de la Savatte
14;;;angers saint laud, Angers;Gare Angers Saint Laud
14;47.46013;-0.53721;;Place de la Madeleine
